<?xml version="1.0" encoding="UTF-8" standalone="no"?>
<!-- Created with Inkscape (http://www.inkscape.org/) -->

<svg
   width="1927.7009"
   height="1027.7014"
   viewBox="0 0 210.00001 111.9558"
   version="1.1"
   id="svg5"
   inkscape:export-filename="og.png"
   inkscape:export-xdpi="232.22856"
   inkscape:export-ydpi="232.22856"
   inkscape:version="1.2.2 (b0a8486541, 2022-12-01)"
   sodipodi:docname="opengraph-inkscape.svg"
   xmlns:inkscape="http://www.inkscape.org/namespaces/inkscape"
   xmlns:sodipodi="http://sodipodi.sourceforge.net/DTD/sodipodi-0.dtd"
   xmlns="http://www.w3.org/2000/svg"
   xmlns:svg="http://www.w3.org/2000/svg">
  <sodipodi:namedview
     id="namedview7"
     pagecolor="#ffffff"
     bordercolor="#666666"
     borderopacity="1.0"
     inkscape:showpageshadow="2"
     inkscape:pageopacity="0.0"
     inkscape:pagecheckerboard="0"
     inkscape:deskcolor="#d1d1d1"
     inkscape:document-units="mm"
     showgrid="false"
     showguides="true"
     inkscape:zoom="0.35355339"
     inkscape:cx="1196.4247"
     inkscape:cy="444.06306"
     inkscape:window-width="1920"
     inkscape:window-height="1055"
     inkscape:window-x="0"
     inkscape:window-y="0"
     inkscape:window-maximized="1"
     inkscape:current-layer="layer1">
    <sodipodi:guide
       position="105,111.9558"
       orientation="1,0"
       id="guide964"
       inkscape:locked="false" />
    <sodipodi:guide
       position="210,55.9779"
       orientation="0,-1"
       id="guide1024"
       inkscape:locked="false" />
  </sodipodi:namedview>
  <defs
     id="defs2">
    <rect
       x="132.16473"
       y="366.21179"
       width="1059.8708"
       height="661.17322"
       id="rect236" />
  </defs>
  <g
     inkscape:label="Layer 1"
     inkscape:groupmode="layer"
     id="layer1">
    <rect
       style="fill:#ffffff;fill-opacity:1;stroke-width:0.504846"
       id="rect1022"
       width="210"
       height="111.9558"
       x="0"
       y="0" />
    <text
       xml:space="preserve"
       transform="matrix(0.26458333,0,0,0.26458333,-19.427186,-76.000882)"
       id="text234"
       style="font-size:40px;line-height:1.25;font-family:sans-serif;letter-spacing:0px;white-space:pre;shape-inside:url(#rect236)"><tspan
         x="132.16406"
         y="545.24944"
         id="tspan1292"><tspan
           style="font-weight:500;font-size:192px;font-family:Ubuntu;-inkscape-font-specification:'Ubuntu, Medium';fill:#c4302b"
           id="tspan1288">DRM</tspan><tspan
           style="font-weight:500;font-size:192px;font-family:Ubuntu;-inkscape-font-specification:'Ubuntu, Medium';fill:#333333"
           id="tspan1290">PT</tspan></tspan></text>
    <text
       xml:space="preserve"
       style="font-size:10.5833px;line-height:1.25;font-family:sans-serif;letter-spacing:0px;stroke-width:0.264583"
       x="15.539382"
       y="88.577782"
       id="text852"><tspan
         sodipodi:role="line"
         id="tspan850"
         style="stroke-width:0.264583"
         x="15.539382"
         y="88.577782">Informação sobre DRM em Portugal</tspan></text>
  </g>
</svg>
